Process Name
EW_Zjets_Sh2211

Histogram Info
BDTscore_LepInvis/[0.4, 0.45, 0.5, 0.55, 0.6, 0.65, 0.7, 0.75, 0.8]

Scale Variations
MURup,MUR0.5_MUF1_PDF303200_PSMUR0.5_PSMUF1
MURdown,MUR2_MUF1_PDF303200_PSMUR2_PSMUF1
MUFup,MUR1_MUF2_PDF303200_PSMUR1_PSMUF2
MUFdown,MUR1_MUF0.5_PDF303200_PSMUR1_PSMUF0.5
MURMUFup,MUR2_MUF2_PDF303200_PSMUR2_PSMUF2
MURMUFdown,MUR0.5_MUF0.5_PDF303200_PSMUR0.5_PSMUF0.5

PDF Variations
PDF303201,MUR1_MUF1_PDF303201
PDF303202,MUR1_MUF1_PDF303202
PDF303203,MUR1_MUF1_PDF303203
PDF303204,MUR1_MUF1_PDF303204
PDF303205,MUR1_MUF1_PDF303205
PDF303206,MUR1_MUF1_PDF303206
PDF303207,MUR1_MUF1_PDF303207
PDF303208,MUR1_MUF1_PDF303208
PDF303209,MUR1_MUF1_PDF303209
PDF303210,MUR1_MUF1_PDF303210
PDF303211,MUR1_MUF1_PDF303211
PDF303212,MUR1_MUF1_PDF303212
PDF303213,MUR1_MUF1_PDF303213
PDF303214,MUR1_MUF1_PDF303214
PDF303215,MUR1_MUF1_PDF303215
PDF303216,MUR1_MUF1_PDF303216
PDF303217,MUR1_MUF1_PDF303217
PDF303218,MUR1_MUF1_PDF303218
PDF303219,MUR1_MUF1_PDF303219
PDF303220,MUR1_MUF1_PDF303220
PDF303221,MUR1_MUF1_PDF303221
PDF303222,MUR1_MUF1_PDF303222
PDF303223,MUR1_MUF1_PDF303223
PDF303224,MUR1_MUF1_PDF303224
PDF303225,MUR1_MUF1_PDF303225
PDF303226,MUR1_MUF1_PDF303226
PDF303227,MUR1_MUF1_PDF303227
PDF303228,MUR1_MUF1_PDF303228
PDF303229,MUR1_MUF1_PDF303229
PDF303230,MUR1_MUF1_PDF303230
PDF303231,MUR1_MUF1_PDF303231
PDF303232,MUR1_MUF1_PDF303232
PDF303233,MUR1_MUF1_PDF303233
PDF303234,MUR1_MUF1_PDF303234
PDF303235,MUR1_MUF1_PDF303235
PDF303236,MUR1_MUF1_PDF303236
PDF303237,MUR1_MUF1_PDF303237
PDF303238,MUR1_MUF1_PDF303238
PDF303239,MUR1_MUF1_PDF303239
PDF303240,MUR1_MUF1_PDF303240
PDF303241,MUR1_MUF1_PDF303241
PDF303242,MUR1_MUF1_PDF303242
PDF303243,MUR1_MUF1_PDF303243
PDF303244,MUR1_MUF1_PDF303244
PDF303245,MUR1_MUF1_PDF303245
PDF303246,MUR1_MUF1_PDF303246
PDF303247,MUR1_MUF1_PDF303247
PDF303248,MUR1_MUF1_PDF303248
PDF303249,MUR1_MUF1_PDF303249
PDF303250,MUR1_MUF1_PDF303250
PDF303251,MUR1_MUF1_PDF303251
PDF303252,MUR1_MUF1_PDF303252
PDF303253,MUR1_MUF1_PDF303253
PDF303254,MUR1_MUF1_PDF303254
PDF303255,MUR1_MUF1_PDF303255
PDF303256,MUR1_MUF1_PDF303256
PDF303257,MUR1_MUF1_PDF303257
PDF303258,MUR1_MUF1_PDF303258
PDF303259,MUR1_MUF1_PDF303259
PDF303260,MUR1_MUF1_PDF303260
PDF303261,MUR1_MUF1_PDF303261
PDF303262,MUR1_MUF1_PDF303262
PDF303263,MUR1_MUF1_PDF303263
PDF303264,MUR1_MUF1_PDF303264
PDF303265,MUR1_MUF1_PDF303265
PDF303266,MUR1_MUF1_PDF303266
PDF303267,MUR1_MUF1_PDF303267
PDF303268,MUR1_MUF1_PDF303268
PDF303269,MUR1_MUF1_PDF303269
PDF303270,MUR1_MUF1_PDF303270
PDF303271,MUR1_MUF1_PDF303271
PDF303272,MUR1_MUF1_PDF303272
PDF303273,MUR1_MUF1_PDF303273
PDF303274,MUR1_MUF1_PDF303274
PDF303275,MUR1_MUF1_PDF303275
PDF303276,MUR1_MUF1_PDF303276
PDF303277,MUR1_MUF1_PDF303277
PDF303278,MUR1_MUF1_PDF303278
PDF303279,MUR1_MUF1_PDF303279
PDF303280,MUR1_MUF1_PDF303280
PDF303281,MUR1_MUF1_PDF303281
PDF303282,MUR1_MUF1_PDF303282
PDF303283,MUR1_MUF1_PDF303283
PDF303284,MUR1_MUF1_PDF303284
PDF303285,MUR1_MUF1_PDF303285
PDF303286,MUR1_MUF1_PDF303286
PDF303287,MUR1_MUF1_PDF303287
PDF303288,MUR1_MUF1_PDF303288
PDF303289,MUR1_MUF1_PDF303289
PDF303290,MUR1_MUF1_PDF303290
PDF303291,MUR1_MUF1_PDF303291
PDF303292,MUR1_MUF1_PDF303292
PDF303293,MUR1_MUF1_PDF303293
PDF303294,MUR1_MUF1_PDF303294
PDF303295,MUR1_MUF1_PDF303295
PDF303296,MUR1_MUF1_PDF303296
PDF303297,MUR1_MUF1_PDF303297
PDF303298,MUR1_MUF1_PDF303298
PDF303299,MUR1_MUF1_PDF303299
PDF303300,MUR1_MUF1_PDF303300

Cuts Tuple
CR_1L#(vbfTagJet1_Pt > 60) & (vbfTagJet2_Pt > 60) & (nBJet20 == 0) & (nLep_signal == 1) & (met_Et_LepInvis > 250) & (((nEle_signal == 1) & (SMET > 4) & (nLep_WCR == 1)) | ((nMu_signal == 1) & (nLep_WCR == 0))) & (((trigMatch_metTrig == 1) & (met_Et > 250)) | ((trigMatch_singleMuonTrig == 1) | (trigMatch_singleElectronTrig == 1))) & (minDPhiAllJetsMet_LepInvis > 0.4) & (BDTscore_LepInvis > 0.4)
Data Paths
/gpfs/slac/atlas/fs1/d/nkang/VBF_v0.7/R21_EXOT5_VBFBkgs_mc16_merged/EW_Zjets_Sh2211_SusySkimHiggsino_VBF_v0.7_EXOT5_skimmed_AllSys_v8.root:EW_Zjets_Sh2211_NoSys
END CONFIG
#################
